<?xml version="1.0" encoding="UTF-8"?>
<testng-results skipped="0" failed="0" ignored="0" total="1" passed="1">
  <reporter-output>
  </reporter-output>
  <suite name="DriverFactory.AppTest" duration-ms="71340" started-at="2018-09-09T19:07:10Z" finished-at="2018-09-09T19:08:21Z">
    <groups>
    </groups>
    <test name="Command line test" duration-ms="71340" started-at="2018-09-09T19:07:10Z" finished-at="2018-09-09T19:08:21Z">
      <class name="DriverFactory.AppTest">
        <test-method status="PASS" signature="kickStart()[pri:0, instance:DriverFactory.AppTest@6b2fad11]" name="kickStart" duration-ms="71303" started-at="2018-09-10T00:37:10Z" finished-at="2018-09-10T00:38:21Z">
          <reporter-output>
          </reporter-output>
        </test-method> <!-- kickStart -->
      </class> <!-- DriverFactory.AppTest -->
    </test> <!-- Command line test -->
  </suite> <!-- DriverFactory.AppTest -->
</testng-results>
